^H:\LABS\MP2-LAB1-SET\GTEST\GTEST-ALL.CC
/c /ZI /nologo /W3 /WX- /Od /Oy- /D WIN32 /D _DEBUG /D _WINDOWS /D _USRDLL /D GTEST_EXPORTS /D _UNICODE /D UNICODE /Gm /EHsc /RTC1 /MDd /GS /fp:precise /Zc:wchar_t /Zc:forScope /Fo"DEBUG\\" /Fd"DEBUG\VC120.PDB" /Gd /TP /analyze- H:\LABS\MP2-LAB1-SET\GTEST\GTEST-ALL.CC
^H:\LABS\MP2-LAB1-SET\SRC\ВИНОГРАДОВА ЕКАТЕРИНА\GTEST\GTEST-ALL.CC
/c /ZI /nologo /W3 /WX- /Od /Oy- /D WIN32 /D _DEBUG /D _WINDOWS /D _USRDLL /D GTEST_EXPORTS /D _UNICODE /D UNICODE /Gm /EHsc /RTC1 /MDd /GS /fp:precise /Zc:wchar_t /Zc:forScope /Fo"DEBUG\\" /Fd"DEBUG\VC120.PDB" /Gd /TP /analyze- H:\LABS\MP2-LAB1-SET\SRC\ВИНОГРАДОВА ЕКАТЕРИНА\GTEST\GTEST-ALL.CC
