^H:\LABS\MP2-LAB1-SET\SLN\VC10\DEBUG\BITFIELD.LIB|H:\LABS\MP2-LAB1-SET\SLN\VC10\DEBUG\GTEST.LIB|H:\LABS\MP2-LAB1-SET\SLN\VC10\TEST_BITFIELD\DEBUG\TEST_MAIN.OBJ|H:\LABS\MP2-LAB1-SET\SLN\VC10\TEST_BITFIELD\DEBUG\TEST_TBITFIELD.OBJ|H:\LABS\MP2-LAB1-SET\SLN\VC10\TEST_BITFIELD\DEBUG\TEST_TSET.OBJ
/OUT:"H:\LABS\MP2-LAB1-SET\SLN\VC10\DEBUG\TEST_BITFIELD.EXE" /INCREMENTAL /NOLOGO /LIBPATH:../Debug gtest.lib bitfield.lib kernel32.lib user32.lib gdi32.lib winspool.lib comdlg32.lib advapi32.lib shell32.lib ole32.lib oleaut32.lib uuid.lib odbc32.lib odbccp32.lib /MANIFEST /MANIFESTUAC:"level='asInvoker' uiAccess='false'" /manifest:embed /DEBUG /PDB:"H:\LABS\MP2-LAB1-SET\SLN\VC10\DEBUG\TEST_BITFIELD.PDB" /SUBSYSTEM:CONSOLE /TLBID:1 /DYNAMICBASE /NXCOMPAT /IMPLIB:"H:\LABS\MP2-LAB1-SET\SLN\VC10\DEBUG\TEST_BITFIELD.LIB" /MACHINE:X86 /SAFESEH DEBUG\TEST_MAIN.OBJDEBUG\TEST_TBITFIELD.OBJDEBUG\TEST_TSET.OBJ"H:\LABS\MP2-LAB1-SET\SLN\VC10\DEBUG\GTEST.LIB""H:\LABS\MP2-LAB1-SET\SLN\VC10\DEBUG\BITFIELD.LIB"
^H:\LABS\MP2-LAB1-SET\SRC\ВИНОГРАДОВА ЕКАТЕРИНА\SLN\VC10\DEBUG\BITFIELD.LIB|H:\LABS\MP2-LAB1-SET\SRC\ВИНОГРАДОВА ЕКАТЕРИНА\SLN\VC10\DEBUG\GTEST.LIB|H:\LABS\MP2-LAB1-SET\SRC\ВИНОГРАДОВА ЕКАТЕРИНА\SLN\VC10\TEST_BITFIELD\DEBUG\TEST_MAIN.OBJ|H:\LABS\MP2-LAB1-SET\SRC\ВИНОГРАДОВА ЕКАТЕРИНА\SLN\VC10\TEST_BITFIELD\DEBUG\TEST_TBITFIELD.OBJ|H:\LABS\MP2-LAB1-SET\SRC\ВИНОГРАДОВА ЕКАТЕРИНА\SLN\VC10\TEST_BITFIELD\DEBUG\TEST_TSET.OBJ
/OUT:"H:\LABS\MP2-LAB1-SET\SRC\ВИНОГРАДОВА ЕКАТЕРИНА\SLN\VC10\DEBUG\TEST_BITFIELD.EXE" /INCREMENTAL /NOLOGO /LIBPATH:../Debug gtest.lib bitfield.lib kernel32.lib user32.lib gdi32.lib winspool.lib comdlg32.lib advapi32.lib shell32.lib ole32.lib oleaut32.lib uuid.lib odbc32.lib odbccp32.lib /MANIFEST /MANIFESTUAC:"level='asInvoker' uiAccess='false'" /manifest:embed /DEBUG /PDB:"H:\LABS\MP2-LAB1-SET\SRC\ВИНОГРАДОВА ЕКАТЕРИНА\SLN\VC10\DEBUG\TEST_BITFIELD.PDB" /SUBSYSTEM:CONSOLE /TLBID:1 /DYNAMICBASE /NXCOMPAT /IMPLIB:"H:\LABS\MP2-LAB1-SET\SRC\ВИНОГРАДОВА ЕКАТЕРИНА\SLN\VC10\DEBUG\TEST_BITFIELD.LIB" /MACHINE:X86 /SAFESEH DEBUG\TEST_MAIN.OBJDEBUG\TEST_TBITFIELD.OBJDEBUG\TEST_TSET.OBJ"H:\LABS\MP2-LAB1-SET\SRC\ВИНОГРАДОВА ЕКАТЕРИНА\SLN\VC10\DEBUG\GTEST.LIB""H:\LABS\MP2-LAB1-SET\SRC\ВИНОГРАДОВА ЕКАТЕРИНА\SLN\VC10\DEBUG\BITFIELD.LIB"
